Prediction of Confidence Rating and Reaction Time Distribution in race models of confidence — predictRM • dynConfiR
…
# }
# \donttest{
  # Use PDFtoQuantiles to get predicted RT quantiles
  # (produces warning because of few rt steps (--> inaccurate calculations))
  PDFtoQuantiles(preds_RT, scaled = FALSE)
#> Warning: There are only 50 rows for at least one subgroup of the data set. 
#> Consider refining the rt-grid for more accurate computations.
#> # A tibble: 80 × 7
#>    condition stimulus response correct rating     p     q
#>        <int>    <dbl>    <dbl>   <dbl> <fct>  <dbl> <dbl>
#>  1         1        1        1       1 unsure   0.1 0.945
#>  2         1        1        1       1 unsure   0.3 1.51 
#>  3         1        1        1       1 unsure   0.5 2.07 
#>  4         1        1        1       1 unsure   0.7 3.06 
#>  5         1        1        1       1 unsure   0.9 4.75 
#>  6         1        1        1       1 sure     0.1 1.51 
#>  7         1        1        1       1 sure     0.3 2.63 
#>  8         1        1        1       1 sure     0.5 3.76 
#>  9         1        1        1       1 sure     0.7 4.89 
#> 10         1        1        1       1 sure     0.9 6.16 
#> # ℹ 70 more rows
…
