Prediction of Confidence Rating and Reaction Time Distribution in the multiple-threshold log-normal noise race model — predictMTLNR • dynConfiR
…
# }
# \donttest{
  # Use PDFtoQuantiles to get predicted RT quantiles
  # (produces warning because of few rt steps (--> inaccurate calculations))
  PDFtoQuantiles(preds_RT, scaled = FALSE)
#> Warning: There are only 50 rows for at least one subgroup of the data set. 
#> Consider refining the rt-grid for more accurate computations.
#> # A tibble: 120 × 7
#>    condition stimulus response correct rating     p     q
#>        <int>    <dbl>    <dbl>   <dbl> <fct>  <dbl> <dbl>
#>  1         1        1        1       1 unsure   0.1 1.09 
#>  2         1        1        1       1 unsure   0.3 1.51 
#>  3         1        1        1       1 unsure   0.5 1.79 
#>  4         1        1        1       1 unsure   0.7 2.21 
#>  5         1        1        1       1 unsure   0.9 2.92 
#>  6         1        1        1       1 medium   0.1 0.804
#>  7         1        1        1       1 medium   0.3 1.09 
#>  8         1        1        1       1 medium   0.5 1.37 
#>  9         1        1        1       1 medium   0.7 1.65 
#> 10         1        1        1       1 medium   0.9 2.21 
#> # ℹ 110 more rows
…
